%YAML 1.1
%TAG !u! tag:unity3d.com,2011:
--- !u!74 &7400000
AnimationClip:
  m_ObjectHideFlags: 0
  m_PrefabParentObject: {fileID: 0}
  m_PrefabInternal: {fileID: 0}
  m_Name: Move
  serializedVersion: 6
  m_Legacy: 0
  m_Compressed: 0
  m_UseHighQualityCurve: 1
  m_RotationCurves:
  - curve:
      serializedVersion: 2
      m_Curve:
      - serializedVersion: 2
        time: 0
        value: {x: 0.7071068, y: -0, z: -0, w: 0.7071068}
        inSlope: {x: 0, y: 0, z: 0, w: 0}
        outSlope: {x: 0, y: 0, z: 0, w: 0}
        tangentMode: 0
      - serializedVersion: 2
        time: 0.041666668
        value: {x: 0.7071068, y: -0, z: -0, w: 0.7071068}
        inSlope: {x: 0, y: 0, z: 0, w: 0}
        outSlope: {x: 0, y: 0, z: 0, w: 0}
        tangentMode: 0
      m_PreInfinity: 2
      m_PostInfinity: 2
      m_RotationOrder: 4
    path: joint1/pSphere1
  m_CompressedRotationCurves: []
  m_EulerCurves: []
  m_PositionCurves:
  - curve:
      serializedVersion: 2
      m_Curve:
      - serializedVersion: 2
        time: 0
        value: {x: -0, y: 0.08, z: 0}
        inSlope: {x: -0.0000000063321774, y: 8.881784e-16, z: 0.0000000063321774}
        outSlope: {x: -0.0000000063321774, y: 8.881784e-16, z: 0.0000000063321774}
        tangentMode: 0
      - serializedVersion: 2
        time: 0.45833334
        value: {x: -0.049999997, y: 0.08, z: 0.049999997}
        inSlope: {x: 0.00000073362776, y: 3.80648e-16, z: -0.00000073362776}
        outSlope: {x: -0.00000037249515, y: 8.88178e-16, z: 0.00000037342647}
        tangentMode: 0
      - serializedVersion: 2
        time: 0.9583333
        value: {x: -0, y: 0.08, z: 0}
        inSlope: {x: 0.10000002, y: 3.8064827e-16, z: -0.0000000052225126}
        outSlope: {x: 0.100000724, y: 8.881767e-16, z: 0.00000013253137}
        tangentMode: 0
      - serializedVersion: 2
        time: 1.4583334
        value: {x: 0.049999997, y: 0.08, z: 0.049999997}
        inSlope: {x: -0.00000037249566, y: 3.8064827e-16, z: 0.0000009889662}
        outSlope: {x: -0.00000069468723, y: 8.881767e-16, z: -0.00000069468723}
        tangentMode: 0
      - serializedVersion: 2
        time: 1.9583334
        value: {x: -0, y: 0.08, z: 0}
        inSlope: {x: -0.00000032613, y: 3.8064827e-16, z: -0.00000032613}
        outSlope: {x: -0.00000032613, y: 3.8064827e-16, z: -0.00000032613}
        tangentMode: 0
      m_PreInfinity: 2
      m_PostInfinity: 2
      m_RotationOrder: 4
    path: joint1/pSphere1
  m_ScaleCurves:
  - curve:
      serializedVersion: 2
      m_Curve:
      - serializedVersion: 2
        time: 0
        value: {x: 1, y: 1, z: 1}
        inSlope: {x: 0, y: 0, z: 0}
        outSlope: {x: 0, y: 0, z: 0}
        tangentMode: 0
      - serializedVersion: 2
        time: 0.041666668
        value: {x: 1, y: 1, z: 1}
        inSlope: {x: 0, y: 0, z: 0}
        outSlope: {x: 0, y: 0, z: 0}
        tangentMode: 0
      m_PreInfinity: 2
      m_PostInfinity: 2
      m_RotationOrder: 4
    path: joint1/pSphere1
  m_FloatCurves: []
  m_PPtrCurves: []
  m_SampleRate: 24
  m_WrapMode: 0
  m_Bounds:
    m_Center: {x: 0, y: 0, z: 0}
    m_Extent: {x: 0, y: 0, z: 0}
  m_ClipBindingConstant:
    genericBindings:
    - serializedVersion: 2
      path: 4210597192
      attribute: 1
      script: {fileID: 0}
      typeID: 4
      customType: 0
      isPPtrCurve: 0
    - serializedVersion: 2
      path: 4210597192
      attribute: 2
      script: {fileID: 0}
      typeID: 4
      customType: 0
      isPPtrCurve: 0
    - serializedVersion: 2
      path: 4210597192
      attribute: 3
      script: {fileID: 0}
      typeID: 4
      customType: 0
      isPPtrCurve: 0
    pptrCurveMapping: []
  m_AnimationClipSettings:
    serializedVersion: 2
    m_AdditiveReferencePoseClip: {fileID: 0}
    m_AdditiveReferencePoseTime: 0
    m_StartTime: 0
    m_StopTime: 1.9583334
    m_OrientationOffsetY: 0
    m_Level: 0
    m_CycleOffset: 0
    m_HasAdditiveReferencePose: 0
    m_LoopTime: 1
    m_LoopBlend: 0
    m_LoopBlendOrientation: 0
    m_LoopBlendPositionY: 0
    m_LoopBlendPositionXZ: 0
    m_KeepOriginalOrientation: 0
    m_KeepOriginalPositionY: 1
    m_KeepOriginalPositionXZ: 0
    m_HeightFromFeet: 0
    m_Mirror: 0
  m_EditorCurves: []
  m_EulerEditorCurves: []
  m_HasGenericRootTransform: 0
  m_HasMotionFloatCurves: 0
  m_GenerateMotionCurves: 0
  m_Events: []
