%YAML 1.1
%TAG !u! tag:unity3d.com,2011:
--- !u!78 &1
TagManager:
  serializedVersion: 2
  tags:
  - Pickupable
  - PlayerHead
  - LightSource
  - Enemy
  - KillVolume
  - ClickTestFloor
  - LevelStructure
  - Weapon
  - Destructable
  - Spike
  - HUD
  layers:
  - Default
  - TransparentFX
  - Ignore Raycast
  - 
  - Water
  - UI
  - 
  - 
  - Floor
  - Pickupable
  - Environment
  - Ignore
  - LevelStructure
  - AggroRadius
  - 
  - 
  - 
  - 
  - 
  - 
  - 
  - 
  - 
  - 
  - 
  - 
  - 
  - 
  - 
  - 
  - 
  - 
  m_SortingLayers:
  - name: Default
    uniqueID: 0
    locked: 0
